{
  "list": [
    {
      "title": "酒撒疯了肯德基啊煞风景啊减肥",
      "image": "/static/1.jpg",
      "username": "发大是大非",
      "date": "2015.5.24",
      "time": "22:25",
      "location": "北京市·朝阳区",
      "avatar": "http://7xnrf9.com1.z0.glb.clouddn.com/avatar1.jpeg"
    }, {
      "image": "/static/2.jpg",
      "username": "玩儿热",
      "date": "2015.6.24",
      "time": "19:05",
      "location": "北京市·朝阳区",
      "avatar": "http://7xnrf9.com1.z0.glb.clouddn.com/avatar2.jpeg"
    }, {
      "image": "/static/3.jpg",
      "username": "多行文本多行文本多行文本多行文本多行文本多行文本多行文本多行文本多行文本多行文本多行文本多行文本疯狂拉升的麻烦",
      "date": "2014.5.24",
      "time": "08:45",
      "location": "北京市·朝阳区",
      "avatar": "http://7xnrf9.com1.z0.glb.clouddn.com/avatar3.jpeg"
    }, {
      "title": "多行文本多行文本多行文本多行文本多行文本多行文本多行文本多行文本",
      "image": "/static/4.jpg",
      "username": "sdfjlkaf",
      "date": "2016.1.8",
      "time": "13:11",
      "location": "北京市·朝阳区",
      "avatar": "http://7xnrf9.com1.z0.glb.clouddn.com/avatar4.jpeg"
    }, {
      "title": "酒撒疯了肯德基啊煞风景啊减肥",
      "image": "/static/3.jpg",
      "username": "用户名很长很长很长很长很长很长很长很长很长很长很长",
      "date": "2015.5.24",
      "time": "22:25",
      "location": "北京市·朝阳区",
      "avatar": "http://7xnrf9.com1.z0.glb.clouddn.com/avatar3.jpeg"
    }, {
      "title": "酒撒疯了肯德基啊煞风景啊减肥",
      "image": "/static/1.jpg",
      "username": "咖啡马卡罗夫",
      "date": "2015.5.24",
      "time": "22:25",
      "location": "北京市·朝阳区",
      "avatar": "http://7xnrf9.com1.z0.glb.clouddn.com/avatar1.jpeg"
    }, {
      "title": "酒撒疯了肯德基啊煞风景啊减肥",
      "image": "/static/4.jpg",
      "username": "2133",
      "date": "2015.5.24",
      "time": "22:25",
      "location": "北京市·朝阳区",
      "avatar": "http://7xnrf9.com1.z0.glb.clouddn.com/avatar4.jpeg"
    }
  ]
}
